// Jest Snapshot v1, https://goo.gl/fbAQLP

exports[`Checkers component Renders correctly 1`] = `
<div>
  <h1
    className="player-A"
  >
    Player A
  </h1>
  <div
    className="player-A"
  >
    <div
      className="board-row"
    >
      <button
        className="square player-null "
        onClick={[Function]}
        type="button"
      >
        <span
          className="piece"
        >
          
        </span>
      </button>
      <button
        className="square player-A dark "
        onClick={[Function]}
        type="button"
      >
        <span
          className="piece"
        >
          
        </span>
      </button>
      <button
        className="square player-null "
        onClick={[Function]}
        type="button"
      >
        <span
          className="piece"
        >
          
        </span>
      </button>
      <button
        className="square player-A dark "
        onClick={[Function]}
        type="button"
      >
        <span
          className="piece"
        >
          
        </span>
      </button>
      <button
        className="square player-null "
        onClick={[Function]}
        type="button"
      >
        <span
          className="piece"
        >
          
        </span>
      </button>
      <button
        className="square player-A dark "
        onClick={[Function]}
        type="button"
      >
        <span
          className="piece"
        >
          
        </span>
      </button>
      <button
        className="square player-null "
        onClick={[Function]}
        type="button"
      >
        <span
          className="piece"
        >
          
        </span>
      </button>
      <button
        className="square player-A dark "
        onClick={[Function]}
        type="button"
      >
        <span
          className="piece"
        >
          
        </span>
      </button>
    </div>
    <div
      className="board-row"
    >
      <button
        className="square player-A dark "
        onClick={[Function]}
        type="button"
      >
        <span
          className="piece"
        >
          
        </span>
      </button>
      <button
        className="square player-null "
        onClick={[Function]}
        type="button"
      >
        <span
          className="piece"
        >
          
        </span>
      </button>
      <button
        className="square player-A dark "
        onClick={[Function]}
        type="button"
      >
        <span
          className="piece"
        >
          
        </span>
      </button>
      <button
        className="square player-null "
        onClick={[Function]}
        type="button"
      >
        <span
          className="piece"
        >
          
        </span>
      </button>
      <button
        className="square player-A dark "
        onClick={[Function]}
        type="button"
      >
        <span
          className="piece"
        >
          
        </span>
      </button>
      <button
        className="square player-null "
        onClick={[Function]}
        type="button"
      >
        <span
          className="piece"
        >
          
        </span>
      </button>
      <button
        className="square player-A dark "
        onClick={[Function]}
        type="button"
      >
        <span
          className="piece"
        >
          
        </span>
      </button>
      <button
        className="square player-null "
        onClick={[Function]}
        type="button"
      >
        <span
          className="piece"
        >
          
        </span>
      </button>
    </div>
    <div
      className="board-row"
    >
      <button
        className="square player-null "
        onClick={[Function]}
        type="button"
      >
        <span
          className="piece"
        >
          
        </span>
      </button>
      <button
        className="square player-A dark "
        onClick={[Function]}
        type="button"
      >
        <span
          className="piece"
        >
          
        </span>
      </button>
      <button
        className="square player-null "
        onClick={[Function]}
        type="button"
      >
        <span
          className="piece"
        >
          
        </span>
      </button>
      <button
        className="square player-A dark "
        onClick={[Function]}
        type="button"
      >
        <span
          className="piece"
        >
          
        </span>
      </button>
      <button
        className="square player-null "
        onClick={[Function]}
        type="button"
      >
        <span
          className="piece"
        >
          
        </span>
      </button>
      <button
        className="square player-A dark "
        onClick={[Function]}
        type="button"
      >
        <span
          className="piece"
        >
          
        </span>
      </button>
      <button
        className="square player-null "
        onClick={[Function]}
        type="button"
      >
        <span
          className="piece"
        >
          
        </span>
      </button>
      <button
        className="square player-A dark "
        onClick={[Function]}
        type="button"
      >
        <span
          className="piece"
        >
          
        </span>
      </button>
    </div>
    <div
      className="board-row"
    >
      <button
        className="square player-null dark "
        onClick={[Function]}
        type="button"
      >
        <span
          className="piece"
        >
          
        </span>
      </button>
      <button
        className="square player-null "
        onClick={[Function]}
        type="button"
      >
        <span
          className="piece"
        >
          
        </span>
      </button>
      <button
        className="square player-null dark "
        onClick={[Function]}
        type="button"
      >
        <span
          className="piece"
        >
          
        </span>
      </button>
      <button
        className="square player-null "
        onClick={[Function]}
        type="button"
      >
        <span
          className="piece"
        >
          
        </span>
      </button>
      <button
        className="square player-null dark "
        onClick={[Function]}
        type="button"
      >
        <span
          className="piece"
        >
          
        </span>
      </button>
      <button
        className="square player-null "
        onClick={[Function]}
        type="button"
      >
        <span
          className="piece"
        >
          
        </span>
      </button>
      <button
        className="square player-null dark "
        onClick={[Function]}
        type="button"
      >
        <span
          className="piece"
        >
          
        </span>
      </button>
      <button
        className="square player-null "
        onClick={[Function]}
        type="button"
      >
        <span
          className="piece"
        >
          
        </span>
      </button>
    </div>
    <div
      className="board-row"
    >
      <button
        className="square player-null "
        onClick={[Function]}
        type="button"
      >
        <span
          className="piece"
        >
          
        </span>
      </button>
      <button
        className="square player-null dark "
        onClick={[Function]}
        type="button"
      >
        <span
          className="piece"
        >
          
        </span>
      </button>
      <button
        className="square player-null "
        onClick={[Function]}
        type="button"
      >
        <span
          className="piece"
        >
          
        </span>
      </button>
      <button
        className="square player-null dark "
        onClick={[Function]}
        type="button"
      >
        <span
          className="piece"
        >
          
        </span>
      </button>
      <button
        className="square player-null "
        onClick={[Function]}
        type="button"
      >
        <span
          className="piece"
        >
          
        </span>
      </button>
      <button
        className="square player-null dark "
        onClick={[Function]}
        type="button"
      >
        <span
          className="piece"
        >
          
        </span>
      </button>
      <button
        className="square player-null "
        onClick={[Function]}
        type="button"
      >
        <span
          className="piece"
        >
          
        </span>
      </button>
      <button
        className="square player-null dark "
        onClick={[Function]}
        type="button"
      >
        <span
          className="piece"
        >
          
        </span>
      </button>
    </div>
    <div
      className="board-row"
    >
      <button
        className="square player-B dark "
        onClick={[Function]}
        type="button"
      >
        <span
          className="piece"
        >
          
        </span>
      </button>
      <button
        className="square player-null "
        onClick={[Function]}
        type="button"
      >
        <span
          className="piece"
        >
          
        </span>
      </button>
      <button
        className="square player-B dark "
        onClick={[Function]}
        type="button"
      >
        <span
          className="piece"
        >
          
        </span>
      </button>
      <button
        className="square player-null "
        onClick={[Function]}
        type="button"
      >
        <span
          className="piece"
        >
          
        </span>
      </button>
      <button
        className="square player-B dark "
        onClick={[Function]}
        type="button"
      >
        <span
          className="piece"
        >
          
        </span>
      </button>
      <button
        className="square player-null "
        onClick={[Function]}
        type="button"
      >
        <span
          className="piece"
        >
          
        </span>
      </button>
      <button
        className="square player-B dark "
        onClick={[Function]}
        type="button"
      >
        <span
          className="piece"
        >
          
        </span>
      </button>
      <button
        className="square player-null "
        onClick={[Function]}
        type="button"
      >
        <span
          className="piece"
        >
          
        </span>
      </button>
    </div>
    <div
      className="board-row"
    >
      <button
        className="square player-null "
        onClick={[Function]}
        type="button"
      >
        <span
          className="piece"
        >
          
        </span>
      </button>
      <button
        className="square player-B dark "
        onClick={[Function]}
        type="button"
      >
        <span
          className="piece"
        >
          
        </span>
      </button>
      <button
        className="square player-null "
        onClick={[Function]}
        type="button"
      >
        <span
          className="piece"
        >
          
        </span>
      </button>
      <button
        className="square player-B dark "
        onClick={[Function]}
        type="button"
      >
        <span
          className="piece"
        >
          
        </span>
      </button>
      <button
        className="square player-null "
        onClick={[Function]}
        type="button"
      >
        <span
          className="piece"
        >
          
        </span>
      </button>
      <button
        className="square player-B dark "
        onClick={[Function]}
        type="button"
      >
        <span
          className="piece"
        >
          
        </span>
      </button>
      <button
        className="square player-null "
        onClick={[Function]}
        type="button"
      >
        <span
          className="piece"
        >
          
        </span>
      </button>
      <button
        className="square player-B dark "
        onClick={[Function]}
        type="button"
      >
        <span
          className="piece"
        >
          
        </span>
      </button>
    </div>
    <div
      className="board-row"
    >
      <button
        className="square player-B dark "
        onClick={[Function]}
        type="button"
      >
        <span
          className="piece"
        >
          
        </span>
      </button>
      <button
        className="square player-null "
        onClick={[Function]}
        type="button"
      >
        <span
          className="piece"
        >
          
        </span>
      </button>
      <button
        className="square player-B dark "
        onClick={[Function]}
        type="button"
      >
        <span
          className="piece"
        >
          
        </span>
      </button>
      <button
        className="square player-null "
        onClick={[Function]}
        type="button"
      >
        <span
          className="piece"
        >
          
        </span>
      </button>
      <button
        className="square player-B dark "
        onClick={[Function]}
        type="button"
      >
        <span
          className="piece"
        >
          
        </span>
      </button>
      <button
        className="square player-null "
        onClick={[Function]}
        type="button"
      >
        <span
          className="piece"
        >
          
        </span>
      </button>
      <button
        className="square player-B dark "
        onClick={[Function]}
        type="button"
      >
        <span
          className="piece"
        >
          
        </span>
      </button>
      <button
        className="square player-null "
        onClick={[Function]}
        type="button"
      >
        <span
          className="piece"
        >
          
        </span>
      </button>
    </div>
  </div>
</div>
`;
