// Jest Snapshot v1, https://goo.gl/fbAQLP

exports[`Square component should render king symbol 1`] = `
<Square
  dark={false}
  highlight={false}
  onClick={[Function]}
  selected={false}
  value={
    Object {
      "king": true,
      "mustjump": false,
      "player": "A",
    }
  }
>
  <button
    className="square player-A"
    onClick={[Function]}
    type="button"
  >
    <span
      className="piece"
    >
      ♔
    </span>
  </button>
</Square>
`;

exports[`Square component should render square 1`] = `
<button
  className="square"
  onClick={[Function]}
  type="button"
>
  <span
    className="piece"
  >
    
  </span>
</button>
`;
